^C:\USERS\ALEX\SOURCE\REPOS\SKILLBOX_HOMEWORK_11\RELEASE\SKILLBOX_HOMEWORK_11.OBJ
C:\USERS\ALEX\SOURCE\REPOS\SKILLBOX_HOMEWORK_11\RELEASE\SKILLBOX_HOMEWORK_11.EXE
C:\USERS\ALEX\SOURCE\REPOS\SKILLBOX_HOMEWORK_11\RELEASE\SKILLBOX_HOMEWORK_11.PDB
