^C:\Users\Alex\source\repos\skillbox_homework_11\skillbox_homework_11.vcxproj
C:\Users\Alex\source\repos\skillbox_homework_11\Release\skillbox_homework_11.ipdb
C:\Users\Alex\source\repos\skillbox_homework_11\Release\skillbox_homework_11.iobj
